{
    "client_id": "eec33660-ee21-428d-a9ef-c5a2170b4731",
    "client_secret": "nr88Q~xvvTgRcU~WdfCVtliiXNxzNJcJh6cjIazb",
    "subscription_id": "24aec7d3-4d2b-4477-bf63-4badc43041db",
    "tenant_id": "fead5631-22ec-4323-bbcf-ff9e28657261",
    "vm_count": 2,
    "master_ip": "172.203.144.252",
    "master_ip_resource_id": "/subscriptions/24aec7d3-4d2b-4477-bf63-4badc43041db/resourceGroups/masterip/providers/Microsoft.Network/publicIPAddresses/master_ip"
}