{
    "$schema": "https://schema.management.azure.com/schemas/2015-01-01/deploymentParameters.json#",
    "contentVersion": "1.0.0.0",
    "parameters": {
        "location": {
            "value": "eastus"
        },
        "networkInterfaceName": {
            "value": "doe-vm470"
        },
        "networkSecurityGroupName": {
            "value": "doe-vm-nsg"
        },
        "networkSecurityGroupRules": {
            "value": [
                {
                    "name": "default-allow-ssh",
                    "properties": {
                        "priority": 100,
                        "protocol": "TCP",
                        "access": "Allow",
                        "direction": "Inbound",
                        "sourceApplicationSecurityGroups": [],
                        "destinationApplicationSecurityGroups": [],
                        "sourceAddressPrefix": "*",
                        "sourcePortRange": "*",
                        "destinationAddressPrefix": "*",
                        "destinationPortRange": "*"
                    }
                },
                {
                    "name": "Port_any",
                    "properties": {
                        "priority": 100,
                        "protocol": "*",
                        "access": "Allow",
                        "direction": "Outbound",
                        "sourceApplicationSecurityGroups": [],
                        "destinationApplicationSecurityGroups": [],
                        "sourceAddressPrefix": "*",
                        "sourcePortRange": "*",
                        "destinationAddressPrefix": "*",
                        "destinationPortRange": "*"
                    }
                }
            ]
        },
        "subnetName": {
            "value": "default"
        },
        "virtualNetworkName": {
            "value": "doe-chatbot-vnet"
        },
        "addressPrefixes": {
            "value": [
                "10.0.1.0/24"
            ]
        },
        "subnets": {
            "value": [
                {
                    "name": "default",
                    "properties": {
                        "addressPrefix": "10.0.1.0/24"
                    }
                }
            ]
        },
        "publicIpAddressId": {
            "value": "/subscriptions/ce740a88-08e8-44b0-a1b6-358e256471f3/resourceGroups/masterip/providers/Microsoft.Network/publicIPAddresses/chatbot-ip"
        },
        "virtualMachineName": {
            "value": "doe-vm"
        },
        "virtualMachineComputerName": {
            "value": "doe-vm"
        },
        "virtualMachineRG": {
            "value": "doe-chatbot"
        },
        "osDiskType": {
            "value": "Premium_LRS"
        },
        "virtualMachineSize": {
            "value": "Standard_B2s"
        },
        "adminUsername": {
            "value": "testuser"
        },
        "adminPassword": {
            "value": "TestUser1234"
        },
        "autoShutdownStatus": {
            "value": "Enabled"
        },
        "autoShutdownTime": {
            "value": "01:00"
        },
        "autoShutdownTimeZone": {
            "value": "India Standard Time"
        },
        "autoShutdownNotificationStatus": {
            "value": "Enabled"
        },
        "autoShutdownNotificationLocale": {
            "value": "en"
        },
        "autoShutdownNotificationEmail": {
            "value": "saivamsi@devopsenabler.com"
        }
    }
}